1 10 20
100 200 125
201 210 89
900 1000 174
367 1885 182
341 1790 182
59 1621 182
99 536 144
252 551 144
262 761 171
462 648 142
188 643 144
380 1743 182
17 985 179
426 1554 182
7 966 179
436 864 171
271 1932 182
329 1028 179
90 1492 182
255 1789 182
218 741 171
160 1831 182
369 756 171
15 1641 182
422 1721 182
136 1509 182
291 1240 182
300 1393 182
192 1178 182
1 753 171
111 747 171
227 1760 182
447 705 171
400 1479 182
370 678 145
233 1341 182
425 718 171
41 1114 179
361 1300 182
68 979 179
130 840 171
296 1700 182
20 1203 182
271 696 145
285 1323 182
191 988 179
50 1732 182
479 1188 182
24 1815 182
318 1042 179
77 1824 182
393 1250 182
203 1809 182
196 1110 179
326 1566 182
87 803 171
21 1515 182
474 1312 182
204 1303 182
42 619 144
325 603 144
472 1138 179
261 1586 182
167 1334 182
455 1502 182
407 1213 182
364 1240 182
202 733 171
481 1916 182
84 1177 182
133 1981 182
372 892 179
258 651 145
56 730 171
158 1780 182
414 1776 182
220 1355 182
278 1183 182
234 1935 182
64 1761 182
380 1690 182
355 1405 182
18 826 171
153 725 171
387 1046 179
256 1931 182
445 581 142
483 620 142
187 1950 182
283 657 145
159 765 171
106 1062 179
495 1387 182
192 1735 182
156 1173 182
81 1438 182
442 554 142
235 973 179
408 557 142
356 1242 182
455 1559 182
188 715 171
280 872 179
115 1054 179
217 907 179
379 1133 179
128 1763 182
445 1658 182
248 1871 182
392 1930 182
56 1673 182
184 1188 182
266 956 179
451 1312 182
256 1500 182
40 689 145
142 1043 179
8 762 171
271 1621 182
365 726 171
111 1189 182
350 1077 179
467 1069 179
600 12400 268
12500 99999 351
100000 1000000 525
